{
  "general_files" : {
    "root_dir" : "D:/Data/RPG/RiggedDice_other",
    "output_report_masterlist_file_to": "_reportMasterList.txt",
    "output_location_masterlist_file_to": "_locationMasterList.txt",
    "output_complete_profile_files_to_folder": "Profiles",
    "output_campaign_summaries_to_folder": "CampaignSummaries",
    "output_location_descriptions_to_folder": "LocationDescriptions"
  },

  "zip_source" : {
    "backup_filename_pattern" : "_backup_riggeddice",
    "temp_folder" : "__temp",
    "rd_backup_source_folder" : "source",
    "report_masterlist_file_to_read" : "inwazja-konspekty.txt",
    "profile_masterlist_file_to_read" : "inwazja-karty-postaci.txt"
  }
}