echo "======= MI =======" > result.txt
radon mi RdReportsReader/Src/ >> result.txt
echo " " >> result.txt
echo "======= CC =======" >> result.txt
radon cc RdReportsReader/Src/ >> result.txt
echo " " >> result.txt
echo "======= RAW =======" >> result.txt
radon raw RdReportsReader/Src/ >> result.txt
